{
    "web": {
        "client_id": "962190139625-lbk4hj121485uqvkfvjcs54fdt5hvgdg.apps.googleusercontent.com",
        "project_id": "sylvan-journey-222510",
        "auth_uri": "https://accounts.google.com/o/oauth2/auth",
        "token_uri": "https://www.googleapis.com/oauth2/v3/token",
        "auth_provider_x509_cert_url": "https://www.googleapis.com/oauth2/v1/certs",
        "client_secret": "GH18ePw3hA5h4I14nagfOnCe",
        "redirect_uris": ["https://report.dhaka.net", "http://localhost/bolcontact"],
        "javascript_origins": ["https://report.dhaka.net", "http://localhost"]
    }
}