﻿Name,"Blood Group",Phone,Company,Department,Designation,Image
Rashed,A-,"type: office, phone: 01710479506",BOL,MCD,CTO,
Rashed,A+,"type: office, phone: 01710479506, type: home, phone: 01710479506",BOL,"IP Telephone",COO,
Amin,A+,"type: office, phone: 01710479506",BOL,"Tech Support",Manager,
Rashed,B+,"type: office, phone: 01710479506",BOL,MCD,"Assistant Manager",
Rashed,A+,"type: office, phone: 01710479506, type: home, phone: 01710479506",BOL,"IP Telephone","Assistant Manager",
Rajin,A+,"type: office, phone: 01710479506",BOL,"Help Desk","Assistant Manager",
Rashed,A+,"type: office, phone: 01710479506",BOL,MCD,CTO,
Rashed,AB-,"type: office, phone: 01710479506, type: home, phone: 01710479506",BOL,"IP Telephone",Manager,
Amin,A-,"type: office, phone: 01710479506",BOL,"Tech Support",Manager,
Mamun,A+,"type: office, phone: 01755522293 , type: home, phone: 01755522290 ","Beximco Holdings",Accounts,"Assistant Manager",
Mahtab,B+,"type: office, phone: 01755522245, type: office, phone: 01716431923","Beximco Holdings",Accounts,"Assistant Manager",
